2024 Men’s March Madness NCAA Basketball Tournament Matchup Predictions
…
##                           
##  Method used: empirical   
##  Number of positive(s): 44
##  Number of negative(s): 19
##  Area under curve: 0.6226

XGB <- ifelse(p_hat>0.6957421 ,1,0)

test_x <- model.matrix(~.-Year-TeamA-TeamB-A_Seed-B_Seed, data = test)[,-1]
test$espnXGB <- predict(xgb.mm, newdata = test_x, type = 'prob')
test$winnerXGB <- ifelse(test$espnXGB > 0.7065721,1, 0)

test[c(1:5, 37:39)]

## # A tibble: 4,095 × 8
##     Year TeamA TeamB      A_Seed B_Seed Diff_OppTO_TeamTO_Ratio_PRE espnXGB winnerXGB
##    <dbl> <chr> <chr>       <dbl>  <dbl>                       <dbl>   <dbl>     <dbl>
##  1  2024 UConn Purdue          1      1                      0.229    0.607         0
##  2  2024 UConn UNC             1      1                      0.0420   0.697         0
##  3  2024 UConn Houston         1      1                     -0.706    0.560         0
##  4  2024 UConn Iowa State      1      2                     -0.551    0.667         0
##  5  2024 UConn Arizona         1      2                     -0.0442   0.597         0
##  6  2024 UConn Marquette       1      2                     -0.404    0.597         0
##  7  2024 UConn Tennessee       1      2                     -0.210    0.597         0
##  8  2024 UConn Illinois        1      3                      0.266    0.707         1
##  9  2024 UConn Kentucky        1      3                     -0.0407   0.847         1
## 10  2024 UConn Baylor          1      3                      0.114    0.727         1
## # ℹ 4,085 more rows
…
##                           
##  Method used: empirical   
##  Number of positive(s): 44
##  Number of negative(s): 19
##  Area under curve: 0.6543

planetMARS <- ifelse(p_hat[,1]>0.7355581 ,1,0)

test$espnMARS <- predict(mars2, newdata = test, type = 'response')
test$winnerMARS <- ifelse(test$espnMARS[,1] > 0.6996445,1, 0)

test[c(1:5, 38:41)]

## # A tibble: 4,095 × 9
##     Year TeamA TeamB      A_Seed B_Seed espnXGB winnerXGB espnMARS[,"1"] winnerMARS
##    <dbl> <chr> <chr>       <dbl>  <dbl>   <dbl>     <dbl>          <dbl>      <dbl>
##  1  2024 UConn Purdue          1      1   0.607         0          0.683          0
##  2  2024 UConn UNC             1      1   0.697         0          0.629          0
##  3  2024 UConn Houston         1      1   0.560         0          0.339          0
##  4  2024 UConn Iowa State      1      2   0.667         0          0.738          1
##  5  2024 UConn Arizona         1      2   0.597         0          0.833          1
##  6  2024 UConn Marquette       1      2   0.597         0          0.790          1
##  7  2024 UConn Tennessee       1      2   0.597         0          0.826          1
##  8  2024 UConn Illinois        1      3   0.707         1          0.540          0
##  9  2024 UConn Kentucky        1      3   0.847         1          0.899          1
## 10  2024 UConn Baylor          1      3   0.727         1          0.789          1
## # ℹ 4,085 more rows
…
